^C:\USERS\40168316\DOCUMENTS\COMPUTER-GRAPHICS\COMPUTERGRAPHICSSET08116\COMPUTER GRAPHICS\059 GOURAUD SHADING\MAIN.CPP
C:\USERS\40168316\DOCUMENTS\COMPUTER-GRAPHICS\COMPUTERGRAPHICSSET08116\COMPUTER GRAPHICS\059 GOURAUD SHADING\DEBUG\VC120.PDB
C:\USERS\40168316\DOCUMENTS\COMPUTER-GRAPHICS\COMPUTERGRAPHICSSET08116\COMPUTER GRAPHICS\059 GOURAUD SHADING\DEBUG\VC120.IDB
C:\USERS\40168316\DOCUMENTS\COMPUTER-GRAPHICS\COMPUTERGRAPHICSSET08116\COMPUTER GRAPHICS\059 GOURAUD SHADING\DEBUG\MAIN.OBJ
