^C:\USERS\40168316\DOCUMENTS\COMPUTER-GRAPHICS\COMPUTERGRAPHICSSET08116\COMPUTER GRAPHICS\022 INDEXED CUBE\DEBUG\MAIN.OBJ|C:\USERS\40168316\DOCUMENTS\COMPUTER-GRAPHICS\COMPUTERGRAPHICSSET08116\COMPUTER GRAPHICS\DEBUG\LIBENUGRAPHICS.LIB
C:\USERS\40168316\DOCUMENTS\COMPUTER-GRAPHICS\COMPUTERGRAPHICSSET08116\COMPUTER GRAPHICS\DEBUG\022 INDEXED CUBE.ILK
C:\USERS\40168316\DOCUMENTS\COMPUTER-GRAPHICS\COMPUTERGRAPHICSSET08116\COMPUTER GRAPHICS\DEBUG\022 INDEXED CUBE.EXE
C:\USERS\40168316\DOCUMENTS\COMPUTER-GRAPHICS\COMPUTERGRAPHICSSET08116\COMPUTER GRAPHICS\DEBUG\022 INDEXED CUBE.PDB
