^C:\USERS\40168316\DOCUMENTS\COMPUTER-GRAPHICS\COMPUTERGRAPHICSSET08116\COMPUTER GRAPHICS\023 SIERPINSKI GASKET\MAIN.CPP
C:\USERS\40168316\DOCUMENTS\COMPUTER-GRAPHICS\COMPUTERGRAPHICSSET08116\COMPUTER GRAPHICS\023 SIERPINSKI GASKET\DEBUG\VC120.PDB
C:\USERS\40168316\DOCUMENTS\COMPUTER-GRAPHICS\COMPUTERGRAPHICSSET08116\COMPUTER GRAPHICS\023 SIERPINSKI GASKET\DEBUG\VC120.IDB
C:\USERS\40168316\DOCUMENTS\COMPUTER-GRAPHICS\COMPUTERGRAPHICSSET08116\COMPUTER GRAPHICS\023 SIERPINSKI GASKET\DEBUG\MAIN.OBJ
