^C:\USERS\40168316\DOCUMENTS\COMPUTER-GRAPHICS\COMPUTERGRAPHICSSET08116\COMPUTER GRAPHICS\055 DIFFUSE LIGHTING 2\MAIN.CPP
C:\USERS\40168316\DOCUMENTS\COMPUTER-GRAPHICS\COMPUTERGRAPHICSSET08116\COMPUTER GRAPHICS\055 DIFFUSE LIGHTING 2\DEBUG\VC120.PDB
C:\USERS\40168316\DOCUMENTS\COMPUTER-GRAPHICS\COMPUTERGRAPHICSSET08116\COMPUTER GRAPHICS\055 DIFFUSE LIGHTING 2\DEBUG\VC120.IDB
C:\USERS\40168316\DOCUMENTS\COMPUTER-GRAPHICS\COMPUTERGRAPHICSSET08116\COMPUTER GRAPHICS\055 DIFFUSE LIGHTING 2\DEBUG\MAIN.OBJ
