^C:\USERS\40168316\DOCUMENTS\COMPUTER-GRAPHICS\COMPUTERGRAPHICSSET08116\COMPUTER GRAPHICS\026 TRANSFORMING A MESH\MAIN.CPP
C:\USERS\40168316\DOCUMENTS\COMPUTER-GRAPHICS\COMPUTERGRAPHICSSET08116\COMPUTER GRAPHICS\026 TRANSFORMING A MESH\DEBUG\VC120.PDB
C:\USERS\40168316\DOCUMENTS\COMPUTER-GRAPHICS\COMPUTERGRAPHICSSET08116\COMPUTER GRAPHICS\026 TRANSFORMING A MESH\DEBUG\VC120.IDB
C:\USERS\40168316\DOCUMENTS\COMPUTER-GRAPHICS\COMPUTERGRAPHICSSET08116\COMPUTER GRAPHICS\026 TRANSFORMING A MESH\DEBUG\MAIN.OBJ
